…
6. Which cities in California have the highest number of colleges?

```r
colleges %>% 
  group_by(CITY) %>% 
  summarise(total=n())
```

```
## # A tibble: 161 x 2
##    CITY        total
##    <chr>       <int>
##  1 Alameda         3
##  2 Anaheim         4
##  3 Angwin          1
##  4 Aptos           1
##  5 Arcata          1
##  6 Atherton        1
##  7 Azusa           1
##  8 Bakersfield     3
##  9 Barstow         1
## 10 Belmont         1
## # … with 151 more rows
```


7. The column `COSTT4_A` is the annual cost of each institution. Which city has the highest cost?

```r
colleges %>%
  select(CITY, COSTT4_A) %>% 
  arrange(desc(COSTT4_A))
```

```
## # A tibble: 341 x 2
##    CITY          COSTT4_A
##    <chr>            <dbl>
##  1 Claremont        69355
##  2 Los Angeles      67225
##  3 Los Angeles      67064
##  4 Los Angeles      67046
##  5 Claremont        66325
##  6 Malibu           66152
##  7 Claremont        66060
##  8 Claremont        65880
##  9 San Francisco    65453
## 10 Claremont        64870
## # … with 331 more rows
```
…
