…
```r
fisheries
```

```
## # A tibble: 17,692 x 71
##    Country..Countr… Species..ASFIS.… Species..ISSCAA… Species..ISSCAA…
##    <chr>            <chr>                       <dbl> <chr>           
##  1 Albania          Angelsharks, sa…               38 Sharks, rays, c…
##  2 Albania          Atlantic bonito                36 Tunas, bonitos,…
##  3 Albania          Barracudas nei                 37 Miscellaneous p…
##  4 Albania          Blue and red sh…               45 Shrimps, prawns 
##  5 Albania          Blue whiting(=P…               32 Cods, hakes, ha…
##  6 Albania          Bluefish                       37 Miscellaneous p…
##  7 Albania          Bogue                          33 Miscellaneous c…
##  8 Albania          Caramote prawn                 45 Shrimps, prawns 
##  9 Albania          Catsharks, nurs…               38 Sharks, rays, c…
## 10 Albania          Common cuttlefi…               57 Squids, cuttlef…
## # … with 17,682 more rows, and 67 more variables:
## #   Species..ASFIS.species._1 <chr>, Species..ASFIS.species._2 <chr>,
## #   Fishing.area..FAO.major.fishing.area. <dbl>, Measure..Measure. <chr>,
## #   X1950 <chr>, X1951 <chr>, X1952 <chr>, X1953 <chr>, X1954 <chr>,
## #   X1955 <chr>, X1956 <chr>, X1957 <chr>, X1958 <chr>, X1959 <chr>,
## #   X1960 <chr>, X1961 <chr>, X1962 <chr>, X1963 <chr>, X1964 <chr>,
## #   X1965 <chr>, X1966 <chr>, X1967 <chr>, X1968 <chr>, X1969 <chr>,
## #   X1970 <chr>, X1971 <chr>, X1972 <chr>, X1973 <chr>, X1974 <chr>,
## #   X1975 <chr>, X1976 <chr>, X1977 <chr>, X1978 <chr>, X1979 <chr>,
…
```r
fisheries <- fisheries %>% 
  rename(country = Country..Country.,
         commname = Species..ASFIS.species.,
         sciname = Species..ASFIS.species._2,
         spcode = Species..ASFIS.species._1,
         spgroup = Species..ISSCAAP.group., 
         spgroupname = Species..ISSCAAP.group._1, 
         region = Fishing.area..FAO.major.fishing.area., 
         unit = Measure..Measure.)
fisheries
```

```
## # A tibble: 17,692 x 71
##    country commname spgroup spgroupname spcode sciname region unit  X1950
##    <chr>   <chr>      <dbl> <chr>       <chr>  <chr>    <dbl> <chr> <chr>
##  1 Albania Angelsh…      38 Sharks, ra… 10903… Squati…     37 Quan… ...  
##  2 Albania Atlanti…      36 Tunas, bon… 17501… Sarda …     37 Quan… ...  
##  3 Albania Barracu…      37 Miscellane… 17710… Sphyra…     37 Quan… ...  
##  4 Albania Blue an…      45 Shrimps, p… 22802… Ariste…     37 Quan… ...  
##  5 Albania Blue wh…      32 Cods, hake… 14804… Microm…     37 Quan… ...  
##  6 Albania Bluefish      37 Miscellane… 17020… Pomato…     37 Quan… ...  
##  7 Albania Bogue         33 Miscellane… 17039… Boops …     37 Quan… ...  
##  8 Albania Caramot…      45 Shrimps, p… 22801… Penaeu…     37 Quan… ...  
##  9 Albania Catshar…      38 Sharks, ra… 10801… Scylio…     37 Quan… ...  
## 10 Albania Common …      57 Squids, cu… 32102… Sepia …     37 Quan… ...  
## # … with 17,682 more rows, and 62 more variables: X1951 <chr>,
## #   X1952 <chr>, X1953 <chr>, X1954 <chr>, X1955 <chr>, X1956 <chr>,
## #   X1957 <chr>, X1958 <chr>, X1959 <chr>, X1960 <chr>, X1961 <chr>,
## #   X1962 <chr>, X1963 <chr>, X1964 <chr>, X1965 <chr>, X1966 <chr>,
## #   X1967 <chr>, X1968 <chr>, X1969 <chr>, X1970 <chr>, X1971 <chr>,
## #   X1972 <chr>, X1973 <chr>, X1974 <chr>, X1975 <chr>, X1976 <chr>,
## #   X1977 <chr>, X1978 <chr>, X1979 <chr>, X1980 <chr>, X1981 <chr>,
## #   X1982 <chr>, X1983 <chr>, X1984 <chr>, X1985 <chr>, X1986 <chr>,
## #   X1987 <chr>, X1988 <chr>, X1989 <chr>, X1990 <chr>, X1991 <chr>,
…
```
## Warning in evalq(as.numeric(str_replace(catch, c("F", "...", "-"),
## replacement = "")), : NAs introduced by coercion
```


```r
fisheries_tidy
```

```
## # A tibble: 1,114,596 x 10
##    country commname spgroup spgroupname spcode sciname region unit   year
##    <chr>   <chr>      <dbl> <chr>       <chr>  <chr>    <dbl> <chr> <dbl>
##  1 Albania Angelsh…      38 Sharks, ra… 10903… Squati…     37 Quan…  1950
##  2 Albania Atlanti…      36 Tunas, bon… 17501… Sarda …     37 Quan…  1950
##  3 Albania Barracu…      37 Miscellane… 17710… Sphyra…     37 Quan…  1950
##  4 Albania Blue an…      45 Shrimps, p… 22802… Ariste…     37 Quan…  1950
##  5 Albania Blue wh…      32 Cods, hake… 14804… Microm…     37 Quan…  1950
##  6 Albania Bluefish      37 Miscellane… 17020… Pomato…     37 Quan…  1950
##  7 Albania Bogue         33 Miscellane… 17039… Boops …     37 Quan…  1950
##  8 Albania Caramot…      45 Shrimps, p… 22801… Penaeu…     37 Quan…  1950
##  9 Albania Catshar…      38 Sharks, ra… 10801… Scylio…     37 Quan…  1950
## 10 Albania Common …      57 Squids, cu… 32102… Sepia …     37 Quan…  1950
## # … with 1,114,586 more rows, and 1 more variable: catch <dbl>
```


```r
fisheries_tidy %>% 
  select(country, spgroupname, year, catch) %>% 
  filter(year==2012, spgroupname=="Squids, cuttlefishes, octopuses") %>% 
  arrange(desc(catch))
```

```
## # A tibble: 745 x 4
##    country                  spgroupname                      year  catch
##    <chr>                    <chr>                           <dbl>  <dbl>
##  1 China                    Squids, cuttlefishes, octopuses  2012 434845
##  2 China                    Squids, cuttlefishes, octopuses  2012 261000
##  3 Korea, Republic of       Squids, cuttlefishes, octopuses  2012 181408
##  4 Japan                    Squids, cuttlefishes, octopuses  2012 169055
##  5 China                    Squids, cuttlefishes, octopuses  2012 127126
##  6 Indonesia                Squids, cuttlefishes, octopuses  2012 116991
##  7 United States of America Squids, cuttlefishes, octopuses  2012  97036
##  8 Argentina                Squids, cuttlefishes, octopuses  2012  94984
##  9 India                    Squids, cuttlefishes, octopuses  2012  82456
## 10 China                    Squids, cuttlefishes, octopuses  2012  78000
## # … with 735 more rows
```

```r
cuttlefish <- 
  fisheries_tidy %>% 
  select(country, commname, sciname, year, catch) %>% 
  filter(year==2012, commname=="Common cuttlefish") %>%
  arrange(desc(catch))
cuttlefish
```

```
## # A tibble: 21 x 5
##    country commname          sciname            year catch
##    <chr>   <chr>             <chr>             <dbl> <dbl>
##  1 France  Common cuttlefish Sepia officinalis  2012 13217
##  2 Tunisia Common cuttlefish Sepia officinalis  2012  7717
##  3 Spain   Common cuttlefish Sepia officinalis  2012  1685
##  4 Turkey  Common cuttlefish Sepia officinalis  2012  1396
##  5 Belgium Common cuttlefish Sepia officinalis  2012   836
##  6 Croatia Common cuttlefish Sepia officinalis  2012   169
##  7 Albania Common cuttlefish Sepia officinalis  2012   125
##  8 France  Common cuttlefish Sepia officinalis  2012    94
##  9 Cyprus  Common cuttlefish Sepia officinalis  2012    24
## 10 Malta   Common cuttlefish Sepia officinalis  2012    24
## # … with 11 more rows
```
