…
```
## ── Conflicts ────────────────────────────────────────── tidyverse_conflicts() ──
## ✖ dplyr::filter() masks stats::filter()
## ✖ dplyr::lag()    masks stats::lag()
```

```r
msleep
```

```
## # A tibble: 83 x 11
##    name  genus vore  order conservation sleep_total sleep_rem sleep_cycle
##    <chr> <chr> <chr> <chr> <chr>              <dbl>     <dbl>       <dbl>
##  1 Chee… Acin… carni Carn… lc                  12.1      NA        NA    
##  2 Owl … Aotus omni  Prim… <NA>                17         1.8      NA    
##  3 Moun… Aplo… herbi Rode… nt                  14.4       2.4      NA    
##  4 Grea… Blar… omni  Sori… lc                  14.9       2.3       0.133
##  5 Cow   Bos   herbi Arti… domesticated         4         0.7       0.667
##  6 Thre… Brad… herbi Pilo… <NA>                14.4       2.2       0.767
##  7 Nort… Call… carni Carn… vu                   8.7       1.4       0.383
##  8 Vesp… Calo… <NA>  Rode… <NA>                 7        NA        NA    
##  9 Dog   Canis carni Carn… domesticated        10.1       2.9       0.333
## 10 Roe … Capr… herbi Arti… lc                   3        NA        NA    
## # … with 73 more rows, and 3 more variables: awake <dbl>, brainwt <dbl>,
## #   bodywt <dbl>
```
…
```r
msleep %>% 
  select(name, genus, bodywt)
```

```
## # A tibble: 83 x 3
##    name                       genus        bodywt
##    <chr>                      <chr>         <dbl>
##  1 Cheetah                    Acinonyx     50    
##  2 Owl monkey                 Aotus         0.48 
##  3 Mountain beaver            Aplodontia    1.35 
##  4 Greater short-tailed shrew Blarina       0.019
##  5 Cow                        Bos         600    
##  6 Three-toed sloth           Bradypus      3.85 
##  7 Northern fur seal          Callorhinus  20.5  
##  8 Vesper mouse               Calomys       0.045
##  9 Dog                        Canis        14    
## 10 Roe deer                   Capreolus    14.8  
## # … with 73 more rows
```


```r
mammals_small <- msleep %>% 
  select(bodywt, sleep_total) %>% 
  filter(bodywt<=1)
```

```r
mammals_small
```

```
## # A tibble: 36 x 2
##    bodywt sleep_total
##     <dbl>       <dbl>
##  1  0.48         17  
##  2  0.019        14.9
##  3  0.045         7  
##  4  0.728         9.4
##  5  0.42         12.5
##  6  0.06         10.3
##  7  1             8.3
##  8  0.005         9.1
##  9  0.023        19.7
## 10  0.77         10.1
## # … with 26 more rows
```
…
